93  vi resolv.conf
94  /etc/init.d/networking restart
95  reboot
96  vi interfaces
97  /etc/init.d/networking restart
98  sudo apt-get install rfkill
99  rfkill unblock all
100  vi /etc/resolv.conf
101  cd network
102  cd /etc/network
103  ls
104  cop interfaces save_interfaces
105  cp interfaces save_interfaces
106  vi interfaces
107  /etc/init.d/networking restart
108  vi interfaces
109  /etc/init.d/networking restart
110  clear
111  cat interfaces
112  reboot
113  exit
114  apt upgrde
115  apt upgrade
116  pwd
117  apt-get install docker
118  systemctl start docker
119  service docker start
120  run docker -v
121  docker -v
122  apt install docker.io
123  docker -v
124  cd /vol1
125  mkdir /vol1
126  cd vol1
127  cd /vol1
128  mkdir dockerMySql
129  cd dockerMySql/
130  ls
131  git clone ssh://test@35.200.142.171/data
132  ls
133  docker -v
134  docker pull mysql/mysql-server
135  docker pull mysql/mysql-server:latest
136  docker images
137  docker ps
138  sysctl net.ipv4.ip_forward=1
139  docker run --name=mysql -d mysql/mysql-server
140  docker ps
141  docker logs mysql
142  docker mysql logs
143  docker logs mysql
144  docker logs mysql 2>&1 | grep GENERATED
145   -it mysql mysql -uroot -p
146  docker inspect mysql | grep -w 'IPAddress' | head -1
147  mysql -utest -pnewpassword -hIPADDRESS
148  apt install mysql-client-core-5.7
149  mysql -utest -pnewpassword -h172.17.0.2
150  apt install mysql-client-core-5.7
151  mysql -utest -pnewpassword -h172.17.0.2
152  pwd
153  ls
154  ls data/
155  mv data/docker-mysql .
156  rmdir data/
157  ls data/
158  ls
159  mv docker-mysql readme-docker-mysql
160  ls
161  ls -laR data/
162  docker images
163  ll /var/lib/docker/
164  ls
165  rm -Rf data/
166  vi readme-docker-mysql
167  cat readme-docker-mysql
168  cd ..
169  mkdir dockerJenkins
170  cd dockerJenkins/
171  docker-compose up -d
172  apt install docker-compose
173  docker-compose up -d
174  ls
175  cd ..
176  rm -Rf dockerJenkins/
177  git clone https://github.com/ejbest/dockerJenkins.git
178  ls
179  cd dockerJenkins/
180  ls
181  docker-compose up -d
182  cat /var/jenkins_home/secrets/initialAdminPassword
183  cd /var
184  ls
185  cd /var/lib/docker
186  ls
187  cd container
188  cd containers
189  ls
190  cd ../image/
191  ls
192  cd ../runtimes/
193  ls
194  cd ../volumes/
195  ls
196  cd ..
197  pwd
198  ps
199  docker ps
200  pwd
201  docker ps
202  docker exec -it 54243b35e411 /bin/bash
203  docker ps
204  docker commit bede315551cb mysql-20181020-1
205  ls
206  docker tag mysql-20181020-1  docker.io/ejbest/mysql-20181020-1
207  docker push docker.io/ejbest/mysql-20181020-1
208  docker login ejbest 88888888
209  docker login --help
210  docker login -u ejbest -p 88888888
211  docker login -u ejbest -p 88888888 --password-stdin
212  docker push docker.io/ejbest/mysql-20181020-1
213  docker login -u ejbest -p 88888888 --password-stdin
214  docker login -u ejbest -password-stdin 88888888
215  docker login -u ejbest --password-stdin 88888888
216  docker login -u ejbest -p 88888888 --password-stdin
217  docker login -u"ejbest" -p"88888888" --password-stdin
218  docker login
219  cd
220  clear
221  docker login -u"ejbest" -p"88888888" --password-stdin
222  mystring="88888888"
223  docker login -u ejbest -p "$mystring"
224  docker login
225  pt install gnupg2 pass
226  apt install tcllib
227  apt-get install gnupg2 pass
228  docker login -u ejbest -p "$mystring"
229  docker login
230  docker login
231  docker login -u ejbest -p "$mystring"
232  docker push docker.io/ejbest/mysql-20181020-1
233  ls
234  docker images
235  docker exec -it CONTAINER_ID /bin/bash
236  docker exec -it mysql mysql -uroot -px
237  docker exec -it mysql mysql -uroot -p88888888
238  docker images
239  docker ps
240  docker exec -it 54243b35e411
241  docker exec -it 54243b35e411 /bin/bash
242  docker ps
243  docker stop 54243b35e411
244  docker delete 54243b35e411
245  docker --help
246  docker kill 54243b35e411
247  docker rm 54243b35e411
248  pwd
249  cd /vol1/dockerJenkins/
250  docker-compose up -d
251  apt  install docker-compose
252  docker-compose up -d
253  docker ps
254  docker exec -it 8d8cb25d68d6 /bin/bash
255  exit
256  docker ps
257  forward iptables
258  apt install qmail
259  docker -v
260  ls
261  rm readme-docker-mysql
262  docker ps
263  docker exec -it mysql
264  docker exec -it mysql /bin/bash
265  cd /var/html/www
266  cd /ar
267  cd /var
268  ls
269  cd www
270  cd /tmp/ejs
271  sudo cp index.html /var/www/html
272  cd /var/html
273  ls
274  cd /var/www/html
275  ls
276  cd myapp
277  ls
278  vi settings
279  pwd
280  ls -latr
281  sudo find /var/www/html -name setttings.py
282  sudo find /var/www/html -name settings.py
283  cd ../mysite4/
284  ls
285  vi settings.py
286  dos2unix settings.py
287  apt install dos2unix
288  sudo apt install dos2unix
289  sudo apt install qmail
290  docker ps
291  mysql -utest -pnewpassword -hIPADDRESS
292  mysql -uroot -pnewpassword -hIPADDRESS
293  mysql -utest -pnewpassword -h172.17.0.1
294  docker exec -it mysql mysql -uroot -p
